EESchema Schematic File Version 2
LIBS:power
LIBS:device
LIBS:transistors
LIBS:conn
LIBS:linear
LIBS:regul
LIBS:74xx
LIBS:cmos4000
LIBS:adc-dac
LIBS:memory
LIBS:xilinx
LIBS:microcontrollers
LIBS:dsp
LIBS:microchip
LIBS:analog_switches
LIBS:motorola
LIBS:texas
LIBS:intel
LIBS:audio
LIBS:interface
LIBS:digital-audio
LIBS:philips
LIBS:display
LIBS:cypress
LIBS:siliconi
LIBS:opto
LIBS:atmel
LIBS:contrib
LIBS:valves
LIBS:my-displays
LIBS:my-microcontrollers
LIBS:my-misc-modules
LIBS:my-power-supplies
LIBS:mysensors-tft-temp-hum-sensor-cache
EELAYER 25 0
EELAYER END
$Descr A4 11693 8268
encoding utf-8
Sheet 1 1
Title ""
Date ""
Rev ""
Comp ""
Comment1 ""
Comment2 ""
Comment3 ""
Comment4 ""
$EndDescr
$Comp
L arduino_nano U1
U 1 1 5CD7CA12
P 3800 3100
F 0 "U1" H 4100 2050 70  0000 C CNN
F 1 "arduino_nano" H 4100 2300 70  0000 C CNN
F 2 "myMicroControllers:Arduino-nano" H 4100 3050 60  0001 C CNN
F 3 "" H 3800 3100 60  0000 C CNN
	1    3800 3100
	1    0    0    -1  
$EndComp
$Comp
L ili9341 U3
U 1 1 5CD7CA55
P 6700 2250
F 0 "U3" H 7350 2050 60  0000 C CNN
F 1 "ili9341" H 7450 1950 60  0000 C CNN
F 2 "myDisplays:ILI9342-DISPLAY" H 6700 2250 60  0001 C CNN
F 3 "" H 6700 2250 60  0000 C CNN
	1    6700 2250
	1    0    0    -1  
$EndComp
$Comp
L GND #PWR01
U 1 1 5CD7CAA4
P 2700 4300
F 0 "#PWR01" H 2700 4050 50  0001 C CNN
F 1 "GND" H 2700 4150 50  0000 C CNN
F 2 "" H 2700 4300 50  0000 C CNN
F 3 "" H 2700 4300 50  0000 C CNN
	1    2700 4300
	1    0    0    -1  
$EndComp
$Comp
L +5V #PWR02
U 1 1 5CD7CAC0
P 2900 3200
F 0 "#PWR02" H 2900 3050 50  0001 C CNN
F 1 "+5V" H 2900 3340 50  0000 C CNN
F 2 "" H 2900 3200 50  0000 C CNN
F 3 "" H 2900 3200 50  0000 C CNN
	1    2900 3200
	1    0    0    -1  
$EndComp
$Comp
L +5V #PWR03
U 1 1 5CD7CADE
P 6500 1650
F 0 "#PWR03" H 6500 1500 50  0001 C CNN
F 1 "+5V" H 6500 1790 50  0000 C CNN
F 2 "" H 6500 1650 50  0000 C CNN
F 3 "" H 6500 1650 50  0000 C CNN
	1    6500 1650
	1    0    0    -1  
$EndComp
$Comp
L GND #PWR04
U 1 1 5CD7CAF7
P 6600 4100
F 0 "#PWR04" H 6600 3850 50  0001 C CNN
F 1 "GND" H 6600 3950 50  0000 C CNN
F 2 "" H 6600 4100 50  0000 C CNN
F 3 "" H 6600 4100 50  0000 C CNN
	1    6600 4100
	1    0    0    -1  
$EndComp
$Comp
L R R3
U 1 1 5CD7CB42
P 6150 3300
F 0 "R3" V 6230 3300 50  0000 C CNN
F 1 "10K" V 6150 3300 50  0000 C CNN
F 2 "Resistors_ThroughHole:Resistor_Horizontal_RM10mm" V 6080 3300 50  0001 C CNN
F 3 "" H 6150 3300 50  0000 C CNN
	1    6150 3300
	0    1    1    0   
$EndComp
$Comp
L R R4
U 1 1 5CD7CF58
P 6150 3450
F 0 "R4" V 6230 3450 50  0000 C CNN
F 1 "10K" V 6150 3450 50  0000 C CNN
F 2 "Resistors_ThroughHole:Resistor_Horizontal_RM10mm" V 6080 3450 50  0001 C CNN
F 3 "" H 6150 3450 50  0000 C CNN
	1    6150 3450
	0    1    1    0   
$EndComp
$Comp
L R R5
U 1 1 5CD7CF76
P 6150 3600
F 0 "R5" V 6230 3600 50  0000 C CNN
F 1 "10K" V 6150 3600 50  0000 C CNN
F 2 "Resistors_ThroughHole:Resistor_Horizontal_RM10mm" V 6080 3600 50  0001 C CNN
F 3 "" H 6150 3600 50  0000 C CNN
	1    6150 3600
	0    1    1    0   
$EndComp
$Comp
L R R2
U 1 1 5CD7CF97
P 6150 3150
F 0 "R2" V 6230 3150 50  0000 C CNN
F 1 "10K" V 6150 3150 50  0000 C CNN
F 2 "Resistors_ThroughHole:Resistor_Horizontal_RM10mm" V 6080 3150 50  0001 C CNN
F 3 "" H 6150 3150 50  0000 C CNN
	1    6150 3150
	0    1    1    0   
$EndComp
$Comp
L R R1
U 1 1 5CD7CFBB
P 6150 3000
F 0 "R1" V 6230 3000 50  0000 C CNN
F 1 "10K" V 6150 3000 50  0000 C CNN
F 2 "Resistors_ThroughHole:Resistor_Horizontal_RM10mm" V 6080 3000 50  0001 C CNN
F 3 "" H 6150 3000 50  0000 C CNN
	1    6150 3000
	0    1    1    0   
$EndComp
$Comp
L NRF24L01 U4
U 1 1 5CD7D4DE
P 7250 5150
F 0 "U4" H 7100 5400 60  0000 C CNN
F 1 "NRF24L01" H 7000 5550 60  0000 C CNN
F 2 "myModules:NRF24L01" H 7250 5150 60  0001 C CNN
F 3 "" H 7250 5150 60  0000 C CNN
	1    7250 5150
	-1   0    0    -1  
$EndComp
$Comp
L GND #PWR05
U 1 1 5CD7D4E5
P 7250 5800
F 0 "#PWR05" H 7250 5550 50  0001 C CNN
F 1 "GND" H 7250 5650 50  0000 C CNN
F 2 "" H 7250 5800 50  0000 C CNN
F 3 "" H 7250 5800 50  0000 C CNN
	1    7250 5800
	1    0    0    -1  
$EndComp
$Comp
L +3.3V #PWR06
U 1 1 5CD7D544
P 7250 4300
F 0 "#PWR06" H 7250 4150 50  0001 C CNN
F 1 "+3.3V" H 7250 4440 50  0000 C CNN
F 2 "" H 7250 4300 50  0000 C CNN
F 3 "" H 7250 4300 50  0000 C CNN
	1    7250 4300
	1    0    0    -1  
$EndComp
$Comp
L +3.3V #PWR07
U 1 1 5CD7DAB8
P 2700 2300
F 0 "#PWR07" H 2700 2150 50  0001 C CNN
F 1 "+3.3V" H 2700 2440 50  0000 C CNN
F 2 "" H 2700 2300 50  0000 C CNN
F 3 "" H 2700 2300 50  0000 C CNN
	1    2700 2300
	1    0    0    -1  
$EndComp
$Comp
L SPEAKER SP1
U 1 1 5CD7DB40
P 4850 5000
F 0 "SP1" H 4750 5250 50  0000 C CNN
F 1 "BUZZER" H 4750 4750 50  0000 C CNN
F 2 "Buzzers_Beepers:MagneticBuzzer_ProSignal_ABT-410-RC" H 4850 5000 50  0001 C CNN
F 3 "" H 4850 5000 50  0000 C CNN
	1    4850 5000
	-1   0    0    1   
$EndComp
$Comp
L GND #PWR08
U 1 1 5CD7DC9B
P 5250 5200
F 0 "#PWR08" H 5250 4950 50  0001 C CNN
F 1 "GND" H 5250 5050 50  0000 C CNN
F 2 "" H 5250 5200 50  0000 C CNN
F 3 "" H 5250 5200 50  0000 C CNN
	1    5250 5200
	1    0    0    -1  
$EndComp
$Comp
L C C1
U 1 1 5D9EE1E1
P 2700 3950
F 0 "C1" H 2725 4050 50  0000 L CNN
F 1 "100nF" H 2725 3850 50  0000 L CNN
F 2 "Capacitors_ThroughHole:C_Rect_L7_W2.5_P5" H 2738 3800 50  0001 C CNN
F 3 "" H 2700 3950 50  0000 C CNN
	1    2700 3950
	1    0    0    -1  
$EndComp
$Comp
L C C2
U 1 1 5D9EE2F7
P 6700 4800
F 0 "C2" H 6725 4900 50  0000 L CNN
F 1 "100nF" H 6725 4700 50  0000 L CNN
F 2 "Capacitors_ThroughHole:C_Rect_L7_W2.5_P5" H 6738 4650 50  0001 C CNN
F 3 "" H 6700 4800 50  0000 C CNN
	1    6700 4800
	1    0    0    -1  
$EndComp
$Comp
L GND #PWR09
U 1 1 5D9EE4D7
P 6700 5350
F 0 "#PWR09" H 6700 5100 50  0001 C CNN
F 1 "GND" H 6700 5200 50  0000 C CNN
F 2 "" H 6700 5350 50  0000 C CNN
F 3 "" H 6700 5350 50  0000 C CNN
	1    6700 5350
	1    0    0    -1  
$EndComp
$Comp
L Q_PMOS_GDS Q1
U 1 1 5E948F05
P 6400 2250
F 0 "Q1" H 6400 2100 50  0000 R CNN
F 1 "AIO403" H 6450 2400 50  0000 R CNN
F 2 "TO_SOT_Packages_THT:TO-251AA" H 6600 2350 50  0001 C CNN
F 3 "" H 6400 2250 50  0000 C CNN
	1    6400 2250
	1    0    0    1   
$EndComp
$Comp
L +5V #PWR010
U 1 1 5E948FCF
P 6500 3800
F 0 "#PWR010" H 6500 3650 50  0001 C CNN
F 1 "+5V" H 6500 3940 50  0000 C CNN
F 2 "" H 6500 3800 50  0000 C CNN
F 3 "" H 6500 3800 50  0000 C CNN
	1    6500 3800
	1    0    0    -1  
$EndComp
$Comp
L R R7
U 1 1 5E9493F8
P 6100 2000
F 0 "R7" V 6180 2000 50  0000 C CNN
F 1 "100K" V 6100 2000 50  0000 C CNN
F 2 "Resistors_ThroughHole:Resistor_Horizontal_RM10mm" V 6030 2000 50  0001 C CNN
F 3 "" H 6100 2000 50  0000 C CNN
	1    6100 2000
	-1   0    0    1   
$EndComp
Wire Wire Line
	2700 4100 2700 4300
Wire Wire Line
	2700 4200 3100 4200
Wire Wire Line
	2900 3200 2900 4800
Wire Wire Line
	2900 3900 3100 3900
Wire Wire Line
	6500 3900 6700 3900
Wire Wire Line
	6600 4100 6600 3750
Wire Wire Line
	6600 3750 6700 3750
Wire Wire Line
	6700 3300 6300 3300
Wire Wire Line
	6300 3000 6700 3000
Wire Wire Line
	6700 3150 6300 3150
Wire Wire Line
	6300 3450 6700 3450
Wire Wire Line
	6700 3600 6300 3600
Wire Wire Line
	6000 3300 5150 3300
Wire Wire Line
	6000 3600 5700 3600
Wire Wire Line
	5700 3600 5700 2550
Wire Wire Line
	5700 2550 5150 2550
Wire Wire Line
	6000 3450 5650 3450
Wire Wire Line
	5650 3450 5650 3150
Wire Wire Line
	5650 3150 5150 3150
Wire Wire Line
	6000 3150 5750 3150
Wire Wire Line
	5750 3150 5750 3250
Wire Wire Line
	5750 3250 5600 3250
Wire Wire Line
	5600 3250 5600 3450
Wire Wire Line
	5600 3450 5150 3450
Wire Wire Line
	3100 2700 2950 2700
Wire Wire Line
	2950 2700 2950 2000
Wire Wire Line
	2950 2000 5750 2000
Wire Wire Line
	5750 2000 5750 3000
Wire Wire Line
	5750 3000 6000 3000
Wire Wire Line
	6700 2850 6500 2850
Wire Wire Line
	7800 5250 7800 4400
Wire Wire Line
	7700 5250 7800 5250
Wire Wire Line
	5450 5150 6800 5150
Wire Wire Line
	7850 5150 7700 5150
Wire Wire Line
	5550 2850 5550 5050
Wire Wire Line
	5550 5050 6800 5050
Wire Wire Line
	5500 4450 7900 4450
Wire Wire Line
	7900 4450 7900 5050
Wire Wire Line
	7900 5050 7700 5050
Wire Wire Line
	7250 5700 7250 5800
Wire Wire Line
	5450 2400 5450 5150
Wire Wire Line
	7850 5150 7850 4350
Wire Wire Line
	7250 4300 7250 4600
Wire Wire Line
	5500 4450 5500 3000
Wire Wire Line
	5500 3000 5150 3000
Wire Wire Line
	5550 2850 5150 2850
Wire Wire Line
	5450 2400 5150 2400
Wire Wire Line
	7800 4400 5400 4400
Wire Wire Line
	5400 4400 5400 2250
Wire Wire Line
	3100 2250 3000 2250
Wire Wire Line
	3000 2250 3000 2050
Wire Wire Line
	3000 2050 5350 2050
Wire Wire Line
	5350 2050 5350 4350
Wire Wire Line
	5350 4350 7850 4350
Wire Wire Line
	2700 2300 2700 2400
Wire Wire Line
	2700 2400 3100 2400
Wire Wire Line
	5150 4900 5250 4900
Wire Wire Line
	5250 4900 5250 3750
Wire Wire Line
	5250 3750 5150 3750
Wire Wire Line
	5250 5200 5250 5100
Wire Wire Line
	5250 5100 5150 5100
Wire Wire Line
	5400 2250 5150 2250
Wire Wire Line
	2900 4800 3200 4800
Connection ~ 2900 3900
Wire Wire Line
	3000 4200 3000 4900
Wire Wire Line
	3000 4900 3200 4900
Connection ~ 3000 4200
Wire Wire Line
	3200 5100 2500 5100
Wire Wire Line
	2500 5100 2500 3300
Wire Wire Line
	2500 3300 3100 3300
Wire Wire Line
	3100 3450 2550 3450
Wire Wire Line
	2550 3450 2550 5000
Wire Wire Line
	2550 5000 3200 5000
Connection ~ 2700 4200
Wire Wire Line
	2900 3700 2700 3700
Wire Wire Line
	2700 3700 2700 3800
Connection ~ 2900 3700
Wire Wire Line
	7250 4500 6700 4500
Wire Wire Line
	6700 4500 6700 4650
Connection ~ 7250 4500
Wire Wire Line
	6700 5350 6700 4950
Wire Wire Line
	6500 3800 6500 3900
Wire Wire Line
	6500 2850 6500 2450
Wire Wire Line
	6500 1650 6500 2050
Wire Wire Line
	6100 1850 6100 1750
Wire Wire Line
	6100 1750 6500 1750
Connection ~ 6500 1750
Wire Wire Line
	5900 2250 6200 2250
Wire Wire Line
	6100 2250 6100 2150
$Comp
L R R6
U 1 1 5E9495B0
P 5900 2000
F 0 "R6" V 5980 2000 50  0000 C CNN
F 1 "220" V 5900 2000 50  0000 C CNN
F 2 "Resistors_ThroughHole:Resistor_Horizontal_RM10mm" V 5830 2000 50  0001 C CNN
F 3 "" H 5900 2000 50  0000 C CNN
	1    5900 2000
	-1   0    0    1   
$EndComp
Wire Wire Line
	5900 2150 5900 2250
Connection ~ 6100 2250
Wire Wire Line
	5900 1850 2900 1850
Wire Wire Line
	2900 1850 2900 3000
Wire Wire Line
	2900 3000 3100 3000
$Comp
L MH-SR602 U5
U 1 1 5E949BB1
P 3450 6050
F 0 "U5" H 3800 6250 60  0000 C CNN
F 1 "MH-SR602" H 3800 6150 60  0000 C CNN
F 2 "myModules:MH-SR602" H 3450 6050 60  0001 C CNN
F 3 "" H 3450 6050 60  0000 C CNN
	1    3450 6050
	1    0    0    1   
$EndComp
$Comp
L +5V #PWR011
U 1 1 5E949C7E
P 3150 5750
F 0 "#PWR011" H 3150 5600 50  0001 C CNN
F 1 "+5V" H 3150 5890 50  0000 C CNN
F 2 "" H 3150 5750 50  0000 C CNN
F 3 "" H 3150 5750 50  0000 C CNN
	1    3150 5750
	1    0    0    -1  
$EndComp
Wire Wire Line
	3250 5950 3150 5950
Wire Wire Line
	3150 5950 3150 5750
$Comp
L GND #PWR012
U 1 1 5E949D29
P 3150 6150
F 0 "#PWR012" H 3150 5900 50  0001 C CNN
F 1 "GND" H 3150 6000 50  0000 C CNN
F 2 "" H 3150 6150 50  0000 C CNN
F 3 "" H 3150 6150 50  0000 C CNN
	1    3150 6150
	1    0    0    -1  
$EndComp
Wire Wire Line
	3250 6050 3150 6050
Wire Wire Line
	3150 6050 3150 6150
Wire Wire Line
	3250 5850 2450 5850
Wire Wire Line
	2450 5850 2450 2850
Wire Wire Line
	2450 2850 3100 2850
$Comp
L SHT31D U2
U 1 1 5E956EB0
P 3850 4950
F 0 "U2" H 3450 4650 60  0000 C CNN
F 1 "SHT31D" H 3950 4650 60  0000 C CNN
F 2 "myModules:SHT31D" H 4350 4350 60  0001 C CNN
F 3 "" H 4350 4350 60  0000 C CNN
	1    3850 4950
	1    0    0    -1  
$EndComp
$EndSCHEMATC
